<?xml version="1.0" encoding="utf-8"?>
<!-- Generator: Adobe Illustrator 17.0.0, SVG Export Plug-In . SVG Version: 6.00 Build 0)  -->
<!DOCTYPE svg PUBLIC "-//W3C//DTD SVG 1.1//EN" "http://www.w3.org/Graphics/SVG/1.1/DTD/svg11.dtd">
<svg version="1.1" id="Capa_1" xmlns="http://www.w3.org/2000/svg" xmlns:xlink="http://www.w3.org/1999/xlink" x="0px" y="0px"
	 width="512px" height="320.5px" viewBox="0 0 512 320.5" enable-background="new 0 0 512 320.5" xml:space="preserve">
<g>
	<g id="keyboard-arrow-down">
		<polygon fill="#898989" points="59.733,0 256,196.268 452.267,0 512,59.735 256,315.733 0,59.735 		"/>
	</g>
</g>
</svg>
